<svg width="3" height="10" viewBox="0 0 3 10" fill="none" xmlns="http://www.w3.org/2000/svg">
<path d="M2.92995 3.588L0.639952 3.875L0.557952 4.255L1.00795 4.338C1.30195 4.408 1.35995 4.514 1.29595 4.807L0.557952 8.275C0.363952 9.172 0.662952 9.594 1.36595 9.594C1.91095 9.594 2.54395 9.342 2.83095 8.996L2.91895 8.58C2.71895 8.756 2.42695 8.826 2.23295 8.826C1.95795 8.826 1.85795 8.633 1.92895 8.293L2.92995 3.588ZM2.99995 1.5C2.99995 1.76522 2.8946 2.01957 2.70706 2.20711C2.51952 2.39464 2.26517 2.5 1.99995 2.5C1.73474 2.5 1.48038 2.39464 1.29285 2.20711C1.10531 2.01957 0.999952 1.76522 0.999952 1.5C0.999952 1.23478 1.10531 0.98043 1.29285 0.792893C1.48038 0.605357 1.73474 0.5 1.99995 0.5C2.26517 0.5 2.51952 0.605357 2.70706 0.792893C2.8946 0.98043 2.99995 1.23478 2.99995 1.5Z" fill="#CEC7B8"/>
</svg>
